2019-07-20 14:06:23,321 INFO: Microblog startup [in /Users/antonio/Desktop/microblog/app/__init__.py:51]
2019-07-20 14:06:28,222 ERROR: Exception on /login [GET] [in /usr/local/lib/python2.7/site-packages/flask/app.py:1891]
Traceback (most recent call last):
  File "/usr/local/lib/python2.7/site-packages/flask/app.py", line 2446, in wsgi_app
    response = self.full_dispatch_request()
  File "/usr/local/lib/python2.7/site-packages/flask/app.py", line 1951, in full_dispatch_request
    rv = self.handle_user_exception(e)
  File "/usr/local/lib/python2.7/site-packages/flask/app.py", line 1820, in handle_user_exception
    reraise(exc_type, exc_value, tb)
  File "/usr/local/lib/python2.7/site-packages/flask/app.py", line 1949, in full_dispatch_request
    rv = self.dispatch_request()
  File "/usr/local/lib/python2.7/site-packages/flask/app.py", line 1935, in dispatch_request
    return self.view_functions[rule.endpoint](**req.view_args)
  File "/Users/antonio/Desktop/microblog/app/routes.py", line 74, in login
    return render_template('login.html', title='Sign In', form=form)
  File "/usr/local/lib/python2.7/site-packages/flask/templating.py", line 140, in render_template
    ctx.app,
  File "/usr/local/lib/python2.7/site-packages/flask/templating.py", line 120, in _render
    rv = template.render(context)
  File "/usr/local/lib/python2.7/site-packages/jinja2/environment.py", line 1008, in render
    return self.environment.handle_exception(exc_info, True)
  File "/usr/local/lib/python2.7/site-packages/jinja2/environment.py", line 780, in handle_exception
    reraise(exc_type, exc_value, tb)
  File "/Users/antonio/Desktop/microblog/app/templates/base.html", line 74, in template
    {% block content %}
TemplateAssertionError: block 'content' defined twice
2019-07-20 14:41:28,956 INFO: Microblog startup [in /Users/antonio/Desktop/microblog/app/__init__.py:51]
2019-07-20 14:41:34,218 ERROR: Exception on /login [GET] [in /usr/local/lib/python2.7/site-packages/flask/app.py:1891]
Traceback (most recent call last):
  File "/usr/local/lib/python2.7/site-packages/flask/app.py", line 2446, in wsgi_app
    response = self.full_dispatch_request()
  File "/usr/local/lib/python2.7/site-packages/flask/app.py", line 1951, in full_dispatch_request
    rv = self.handle_user_exception(e)
  File "/usr/local/lib/python2.7/site-packages/flask/app.py", line 1820, in handle_user_exception
    reraise(exc_type, exc_value, tb)
  File "/usr/local/lib/python2.7/site-packages/flask/app.py", line 1949, in full_dispatch_request
    rv = self.dispatch_request()
  File "/usr/local/lib/python2.7/site-packages/flask/app.py", line 1935, in dispatch_request
    return self.view_functions[rule.endpoint](**req.view_args)
  File "/Users/antonio/Desktop/microblog/app/routes.py", line 74, in login
    return render_template('login.html', title='Sign In', form=form)
  File "/usr/local/lib/python2.7/site-packages/flask/templating.py", line 140, in render_template
    ctx.app,
  File "/usr/local/lib/python2.7/site-packages/flask/templating.py", line 120, in _render
    rv = template.render(context)
  File "/usr/local/lib/python2.7/site-packages/jinja2/environment.py", line 1008, in render
    return self.environment.handle_exception(exc_info, True)
  File "/usr/local/lib/python2.7/site-packages/jinja2/environment.py", line 780, in handle_exception
    reraise(exc_type, exc_value, tb)
  File "/Users/antonio/Desktop/microblog/app/templates/base.html", line 74, in template
    {% block content %}
TemplateAssertionError: block 'content' defined twice
2019-07-20 20:51:38,276 INFO: Microblog startup [in /Users/antonio/Desktop/microblog/app/__init__.py:51]
2019-07-20 20:51:46,341 ERROR: Exception on /login [GET] [in /usr/local/lib/python2.7/site-packages/flask/app.py:1891]
Traceback (most recent call last):
  File "/usr/local/lib/python2.7/site-packages/flask/app.py", line 2446, in wsgi_app
    response = self.full_dispatch_request()
  File "/usr/local/lib/python2.7/site-packages/flask/app.py", line 1951, in full_dispatch_request
    rv = self.handle_user_exception(e)
  File "/usr/local/lib/python2.7/site-packages/flask/app.py", line 1820, in handle_user_exception
    reraise(exc_type, exc_value, tb)
  File "/usr/local/lib/python2.7/site-packages/flask/app.py", line 1949, in full_dispatch_request
    rv = self.dispatch_request()
  File "/usr/local/lib/python2.7/site-packages/flask/app.py", line 1935, in dispatch_request
    return self.view_functions[rule.endpoint](**req.view_args)
  File "/Users/antonio/Desktop/microblog/app/routes.py", line 74, in login
    return render_template('login.html', title='Sign In', form=form)
  File "/usr/local/lib/python2.7/site-packages/flask/templating.py", line 140, in render_template
    ctx.app,
  File "/usr/local/lib/python2.7/site-packages/flask/templating.py", line 120, in _render
    rv = template.render(context)
  File "/usr/local/lib/python2.7/site-packages/jinja2/environment.py", line 1008, in render
    return self.environment.handle_exception(exc_info, True)
  File "/usr/local/lib/python2.7/site-packages/jinja2/environment.py", line 780, in handle_exception
    reraise(exc_type, exc_value, tb)
  File "/Users/antonio/Desktop/microblog/app/templates/base.html", line 74, in template
    {% block content %}
TemplateAssertionError: block 'content' defined twice
2019-07-20 20:54:21,999 INFO: Microblog startup [in /Users/antonio/Desktop/microblog/app/__init__.py:51]
2019-07-20 20:54:40,220 ERROR: Exception on /index [GET] [in /usr/local/lib/python2.7/site-packages/flask/app.py:1891]
Traceback (most recent call last):
  File "/usr/local/lib/python2.7/site-packages/flask/app.py", line 2446, in wsgi_app
    response = self.full_dispatch_request()
  File "/usr/local/lib/python2.7/site-packages/flask/app.py", line 1951, in full_dispatch_request
    rv = self.handle_user_exception(e)
  File "/usr/local/lib/python2.7/site-packages/flask/app.py", line 1820, in handle_user_exception
    reraise(exc_type, exc_value, tb)
  File "/usr/local/lib/python2.7/site-packages/flask/app.py", line 1949, in full_dispatch_request
    rv = self.dispatch_request()
  File "/usr/local/lib/python2.7/site-packages/flask/app.py", line 1935, in dispatch_request
    return self.view_functions[rule.endpoint](**req.view_args)
  File "/usr/local/lib/python2.7/site-packages/flask_login/utils.py", line 261, in decorated_view
    return func(*args, **kwargs)
  File "/Users/antonio/Desktop/microblog/app/routes.py", line 54, in index
    return render_template('index.html', title = 'Home Page', form=form, posts=posts.items, next_url=next_url, prev_url=prev_url)
  File "/usr/local/lib/python2.7/site-packages/flask/templating.py", line 138, in render_template
    ctx.app.jinja_env.get_or_select_template(template_name_or_list),
  File "/usr/local/lib/python2.7/site-packages/jinja2/environment.py", line 869, in get_or_select_template
    return self.get_template(template_name_or_list, parent, globals)
  File "/usr/local/lib/python2.7/site-packages/jinja2/environment.py", line 830, in get_template
    return self._load_template(name, self.make_globals(globals))
  File "/usr/local/lib/python2.7/site-packages/jinja2/environment.py", line 804, in _load_template
    template = self.loader.load(self, name, globals)
  File "/usr/local/lib/python2.7/site-packages/jinja2/loaders.py", line 125, in load
    code = environment.compile(source, name, filename)
  File "/usr/local/lib/python2.7/site-packages/jinja2/environment.py", line 591, in compile
    self.handle_exception(exc_info, source_hint=source_hint)
  File "/usr/local/lib/python2.7/site-packages/jinja2/environment.py", line 780, in handle_exception
    reraise(exc_type, exc_value, tb)
  File "/Users/antonio/Desktop/microblog/app/templates/index.html", line 25, in template
    {% endif %}
TemplateSyntaxError: Encountered unknown tag 'endif'. Jinja was looking for the following tags: 'endblock'. The innermost block that needs to be closed is 'block'.
2019-07-20 20:55:58,356 INFO: Microblog startup [in /Users/antonio/Desktop/microblog/app/__init__.py:51]
2019-07-20 20:59:48,569 INFO: Microblog startup [in /Users/antonio/Desktop/microblog/app/__init__.py:51]
2019-07-21 11:52:01,769 INFO: Microblog startup [in /Users/antonio/Desktop/microblog/app/__init__.py:53]
2019-07-21 11:55:11,471 INFO: Microblog startup [in /Users/antonio/Desktop/microblog/app/__init__.py:53]
2019-07-21 12:01:37,449 INFO: Microblog startup [in /Users/antonio/Desktop/microblog/app/__init__.py:53]
2019-07-21 12:01:43,186 INFO: Microblog startup [in /Users/antonio/Desktop/microblog/app/__init__.py:53]
2019-07-21 12:10:52,794 INFO: Microblog startup [in /Users/antonio/Desktop/microblog/app/__init__.py:53]
2019-07-21 12:15:12,450 INFO: Microblog startup [in /Users/antonio/Desktop/microblog/app/__init__.py:53]
2019-07-23 22:52:16,056 INFO: Microblog startup [in /Users/antonio/Desktop/microblog/app/__init__.py:55]
2019-07-23 22:52:50,572 INFO: Microblog startup [in /Users/antonio/Desktop/microblog/app/__init__.py:55]
