2019-07-17 13:08:08,918 INFO: Microblog startup [in /Users/antonio/Desktop/microblog/app/__init__.py:47]
2019-07-17 13:08:46,228 ERROR: Exception on /user/mami [GET] [in /usr/local/lib/python2.7/site-packages/flask/app.py:1891]
Traceback (most recent call last):
  File "/usr/local/lib/python2.7/site-packages/flask/app.py", line 2446, in wsgi_app
    response = self.full_dispatch_request()
  File "/usr/local/lib/python2.7/site-packages/flask/app.py", line 1951, in full_dispatch_request
    rv = self.handle_user_exception(e)
  File "/usr/local/lib/python2.7/site-packages/flask/app.py", line 1820, in handle_user_exception
    reraise(exc_type, exc_value, tb)
  File "/usr/local/lib/python2.7/site-packages/flask/app.py", line 1949, in full_dispatch_request
    rv = self.dispatch_request()
  File "/usr/local/lib/python2.7/site-packages/flask/app.py", line 1935, in dispatch_request
    return self.view_functions[rule.endpoint](**req.view_args)
  File "/usr/local/lib/python2.7/site-packages/flask_login/utils.py", line 261, in decorated_view
    return func(*args, **kwargs)
  File "/Users/antonio/Desktop/microblog/app/routes.py", line 84, in user
    return render_template('user.html', user=user, posts=posts)
  File "/usr/local/lib/python2.7/site-packages/flask/templating.py", line 140, in render_template
    ctx.app,
  File "/usr/local/lib/python2.7/site-packages/flask/templating.py", line 120, in _render
    rv = template.render(context)
  File "/usr/local/lib/python2.7/site-packages/jinja2/environment.py", line 1008, in render
    return self.environment.handle_exception(exc_info, True)
  File "/usr/local/lib/python2.7/site-packages/jinja2/environment.py", line 780, in handle_exception
    reraise(exc_type, exc_value, tb)
  File "/Users/antonio/Desktop/microblog/app/templates/user.html", line 1, in top-level template code
    {% extends "base.html" %}
  File "/Users/antonio/Desktop/microblog/app/templates/base.html", line 31, in top-level template code
    {% block content %}{% endblock %}
  File "/Users/antonio/Desktop/microblog/app/templates/user.html", line 16, in block "content"
    <p>{{ user.follow.count() }} followers, {{ user.followed.count() }} following. <p>
UndefinedError: 'instancemethod object' has no attribute 'count'
2019-07-17 13:08:54,338 ERROR: Exception on /user/eric [GET] [in /usr/local/lib/python2.7/site-packages/flask/app.py:1891]
Traceback (most recent call last):
  File "/usr/local/lib/python2.7/site-packages/flask/app.py", line 2446, in wsgi_app
    response = self.full_dispatch_request()
  File "/usr/local/lib/python2.7/site-packages/flask/app.py", line 1951, in full_dispatch_request
    rv = self.handle_user_exception(e)
  File "/usr/local/lib/python2.7/site-packages/flask/app.py", line 1820, in handle_user_exception
    reraise(exc_type, exc_value, tb)
  File "/usr/local/lib/python2.7/site-packages/flask/app.py", line 1949, in full_dispatch_request
    rv = self.dispatch_request()
  File "/usr/local/lib/python2.7/site-packages/flask/app.py", line 1935, in dispatch_request
    return self.view_functions[rule.endpoint](**req.view_args)
  File "/usr/local/lib/python2.7/site-packages/flask_login/utils.py", line 261, in decorated_view
    return func(*args, **kwargs)
  File "/Users/antonio/Desktop/microblog/app/routes.py", line 84, in user
    return render_template('user.html', user=user, posts=posts)
  File "/usr/local/lib/python2.7/site-packages/flask/templating.py", line 140, in render_template
    ctx.app,
  File "/usr/local/lib/python2.7/site-packages/flask/templating.py", line 120, in _render
    rv = template.render(context)
  File "/usr/local/lib/python2.7/site-packages/jinja2/environment.py", line 1008, in render
    return self.environment.handle_exception(exc_info, True)
  File "/usr/local/lib/python2.7/site-packages/jinja2/environment.py", line 780, in handle_exception
    reraise(exc_type, exc_value, tb)
  File "/Users/antonio/Desktop/microblog/app/templates/user.html", line 1, in top-level template code
    {% extends "base.html" %}
  File "/Users/antonio/Desktop/microblog/app/templates/base.html", line 31, in top-level template code
    {% block content %}{% endblock %}
  File "/Users/antonio/Desktop/microblog/app/templates/user.html", line 16, in block "content"
    <p>{{ user.follow.count() }} followers, {{ user.followed.count() }} following. <p>
UndefinedError: 'instancemethod object' has no attribute 'count'
2019-07-17 16:40:05,769 INFO: Microblog startup [in /Users/antonio/Desktop/microblog/app/__init__.py:47]
2019-07-17 16:40:28,401 INFO: Microblog startup [in /Users/antonio/Desktop/microblog/app/__init__.py:47]
2019-07-17 16:40:34,386 ERROR: Exception on /user/eric [GET] [in /usr/local/lib/python2.7/site-packages/flask/app.py:1891]
Traceback (most recent call last):
  File "/usr/local/lib/python2.7/site-packages/flask/app.py", line 2446, in wsgi_app
    response = self.full_dispatch_request()
  File "/usr/local/lib/python2.7/site-packages/flask/app.py", line 1951, in full_dispatch_request
    rv = self.handle_user_exception(e)
  File "/usr/local/lib/python2.7/site-packages/flask/app.py", line 1820, in handle_user_exception
    reraise(exc_type, exc_value, tb)
  File "/usr/local/lib/python2.7/site-packages/flask/app.py", line 1949, in full_dispatch_request
    rv = self.dispatch_request()
  File "/usr/local/lib/python2.7/site-packages/flask/app.py", line 1935, in dispatch_request
    return self.view_functions[rule.endpoint](**req.view_args)
  File "/usr/local/lib/python2.7/site-packages/flask_login/utils.py", line 261, in decorated_view
    return func(*args, **kwargs)
  File "/Users/antonio/Desktop/microblog/app/routes.py", line 84, in user
    return render_template('user.html', user=user, posts=posts)
  File "/usr/local/lib/python2.7/site-packages/flask/templating.py", line 140, in render_template
    ctx.app,
  File "/usr/local/lib/python2.7/site-packages/flask/templating.py", line 120, in _render
    rv = template.render(context)
  File "/usr/local/lib/python2.7/site-packages/jinja2/environment.py", line 1008, in render
    return self.environment.handle_exception(exc_info, True)
  File "/usr/local/lib/python2.7/site-packages/jinja2/environment.py", line 780, in handle_exception
    reraise(exc_type, exc_value, tb)
  File "/Users/antonio/Desktop/microblog/app/templates/user.html", line 1, in top-level template code
    {% extends "base.html" %}
  File "/Users/antonio/Desktop/microblog/app/templates/base.html", line 31, in top-level template code
    {% block content %}{% endblock %}
  File "/Users/antonio/Desktop/microblog/app/templates/user.html", line 16, in block "content"
    <p>{{ user.follow.count() }} followers, {{ user.followed.count() }} following. <p>
UndefinedError: 'instancemethod object' has no attribute 'count'
2019-07-17 16:40:38,100 ERROR: Exception on /user/eric [GET] [in /usr/local/lib/python2.7/site-packages/flask/app.py:1891]
Traceback (most recent call last):
  File "/usr/local/lib/python2.7/site-packages/flask/app.py", line 2446, in wsgi_app
    response = self.full_dispatch_request()
  File "/usr/local/lib/python2.7/site-packages/flask/app.py", line 1951, in full_dispatch_request
    rv = self.handle_user_exception(e)
  File "/usr/local/lib/python2.7/site-packages/flask/app.py", line 1820, in handle_user_exception
    reraise(exc_type, exc_value, tb)
  File "/usr/local/lib/python2.7/site-packages/flask/app.py", line 1949, in full_dispatch_request
    rv = self.dispatch_request()
  File "/usr/local/lib/python2.7/site-packages/flask/app.py", line 1935, in dispatch_request
    return self.view_functions[rule.endpoint](**req.view_args)
  File "/usr/local/lib/python2.7/site-packages/flask_login/utils.py", line 261, in decorated_view
    return func(*args, **kwargs)
  File "/Users/antonio/Desktop/microblog/app/routes.py", line 84, in user
    return render_template('user.html', user=user, posts=posts)
  File "/usr/local/lib/python2.7/site-packages/flask/templating.py", line 140, in render_template
    ctx.app,
  File "/usr/local/lib/python2.7/site-packages/flask/templating.py", line 120, in _render
    rv = template.render(context)
  File "/usr/local/lib/python2.7/site-packages/jinja2/environment.py", line 1008, in render
    return self.environment.handle_exception(exc_info, True)
  File "/usr/local/lib/python2.7/site-packages/jinja2/environment.py", line 780, in handle_exception
    reraise(exc_type, exc_value, tb)
  File "/Users/antonio/Desktop/microblog/app/templates/user.html", line 1, in top-level template code
    {% extends "base.html" %}
  File "/Users/antonio/Desktop/microblog/app/templates/base.html", line 31, in top-level template code
    {% block content %}{% endblock %}
  File "/Users/antonio/Desktop/microblog/app/templates/user.html", line 16, in block "content"
    <p>{{ user.follow.count() }} followers, {{ user.followed.count() }} following. <p>
UndefinedError: 'instancemethod object' has no attribute 'count'
