2019-07-17 16:44:44,257 ERROR: Exception on /user/eric [GET] [in /usr/local/lib/python2.7/site-packages/flask/app.py:1891]
Traceback (most recent call last):
  File "/usr/local/lib/python2.7/site-packages/flask/app.py", line 2446, in wsgi_app
    response = self.full_dispatch_request()
  File "/usr/local/lib/python2.7/site-packages/flask/app.py", line 1951, in full_dispatch_request
    rv = self.handle_user_exception(e)
  File "/usr/local/lib/python2.7/site-packages/flask/app.py", line 1820, in handle_user_exception
    reraise(exc_type, exc_value, tb)
  File "/usr/local/lib/python2.7/site-packages/flask/app.py", line 1949, in full_dispatch_request
    rv = self.dispatch_request()
  File "/usr/local/lib/python2.7/site-packages/flask/app.py", line 1935, in dispatch_request
    return self.view_functions[rule.endpoint](**req.view_args)
  File "/usr/local/lib/python2.7/site-packages/flask_login/utils.py", line 261, in decorated_view
    return func(*args, **kwargs)
  File "/Users/antonio/Desktop/microblog/app/routes.py", line 84, in user
    return render_template('user.html', user=user, posts=posts)
  File "/usr/local/lib/python2.7/site-packages/flask/templating.py", line 140, in render_template
    ctx.app,
  File "/usr/local/lib/python2.7/site-packages/flask/templating.py", line 120, in _render
    rv = template.render(context)
  File "/usr/local/lib/python2.7/site-packages/jinja2/environment.py", line 1008, in render
    return self.environment.handle_exception(exc_info, True)
  File "/usr/local/lib/python2.7/site-packages/jinja2/environment.py", line 780, in handle_exception
    reraise(exc_type, exc_value, tb)
  File "/Users/antonio/Desktop/microblog/app/templates/user.html", line 1, in top-level template code
    {% extends "base.html" %}
  File "/Users/antonio/Desktop/microblog/app/templates/base.html", line 31, in top-level template code
    {% block content %}{% endblock %}
  File "/Users/antonio/Desktop/microblog/app/templates/user.html", line 16, in block "content"
    <p>{{ user.followers.count() }} followers, {{ user.followed.count() }} following. <p>
UndefinedError: 'instancemethod object' has no attribute 'count'
2019-07-17 16:44:55,138 INFO: Microblog startup [in /Users/antonio/Desktop/microblog/app/__init__.py:47]
2019-07-17 16:45:25,622 INFO: Microblog startup [in /Users/antonio/Desktop/microblog/app/__init__.py:47]
2019-07-17 16:45:44,637 ERROR: Exception on /follow/mami [GET] [in /usr/local/lib/python2.7/site-packages/flask/app.py:1891]
Traceback (most recent call last):
  File "/usr/local/lib/python2.7/site-packages/flask/app.py", line 2446, in wsgi_app
    response = self.full_dispatch_request()
  File "/usr/local/lib/python2.7/site-packages/flask/app.py", line 1951, in full_dispatch_request
    rv = self.handle_user_exception(e)
  File "/usr/local/lib/python2.7/site-packages/flask/app.py", line 1820, in handle_user_exception
    reraise(exc_type, exc_value, tb)
  File "/usr/local/lib/python2.7/site-packages/flask/app.py", line 1949, in full_dispatch_request
    rv = self.dispatch_request()
  File "/usr/local/lib/python2.7/site-packages/flask/app.py", line 1935, in dispatch_request
    return self.view_functions[rule.endpoint](**req.view_args)
  File "/usr/local/lib/python2.7/site-packages/flask_login/utils.py", line 261, in decorated_view
    return func(*args, **kwargs)
  File "/Users/antonio/Desktop/microblog/app/routes.py", line 113, in follow
    user = User.query.fikter_by(username=username).first()
AttributeError: 'BaseQuery' object has no attribute 'fikter_by'
2019-07-17 16:48:48,982 INFO: Microblog startup [in /Users/antonio/Desktop/microblog/app/__init__.py:47]
2019-07-17 16:49:17,603 ERROR: Exception on /unfollow/mami [GET] [in /usr/local/lib/python2.7/site-packages/flask/app.py:1891]
Traceback (most recent call last):
  File "/usr/local/lib/python2.7/site-packages/flask/app.py", line 2446, in wsgi_app
    response = self.full_dispatch_request()
  File "/usr/local/lib/python2.7/site-packages/flask/app.py", line 1951, in full_dispatch_request
    rv = self.handle_user_exception(e)
  File "/usr/local/lib/python2.7/site-packages/flask/app.py", line 1820, in handle_user_exception
    reraise(exc_type, exc_value, tb)
  File "/usr/local/lib/python2.7/site-packages/flask/app.py", line 1949, in full_dispatch_request
    rv = self.dispatch_request()
  File "/usr/local/lib/python2.7/site-packages/flask/app.py", line 1935, in dispatch_request
    return self.view_functions[rule.endpoint](**req.view_args)
  File "/usr/local/lib/python2.7/site-packages/flask_login/utils.py", line 261, in decorated_view
    return func(*args, **kwargs)
  File "/Users/antonio/Desktop/microblog/app/routes.py", line 129, in unfollow
    user = User.query.fikter_by(username=username).first()
AttributeError: 'BaseQuery' object has no attribute 'fikter_by'
2019-07-17 16:53:27,464 ERROR: Exception on /unfollow/mami [GET] [in /usr/local/lib/python2.7/site-packages/flask/app.py:1891]
Traceback (most recent call last):
  File "/usr/local/lib/python2.7/site-packages/flask/app.py", line 2446, in wsgi_app
    response = self.full_dispatch_request()
  File "/usr/local/lib/python2.7/site-packages/flask/app.py", line 1951, in full_dispatch_request
    rv = self.handle_user_exception(e)
  File "/usr/local/lib/python2.7/site-packages/flask/app.py", line 1820, in handle_user_exception
    reraise(exc_type, exc_value, tb)
  File "/usr/local/lib/python2.7/site-packages/flask/app.py", line 1949, in full_dispatch_request
    rv = self.dispatch_request()
  File "/usr/local/lib/python2.7/site-packages/flask/app.py", line 1935, in dispatch_request
    return self.view_functions[rule.endpoint](**req.view_args)
  File "/usr/local/lib/python2.7/site-packages/flask_login/utils.py", line 261, in decorated_view
    return func(*args, **kwargs)
  File "/Users/antonio/Desktop/microblog/app/routes.py", line 129, in unfollow
    user = User.query.filter_by(username=username).first()
AttributeError: 'BaseQuery' object has no attribute 'fikter_by'
2019-07-17 16:53:56,302 INFO: Microblog startup [in /Users/antonio/Desktop/microblog/app/__init__.py:47]
2019-07-17 16:54:51,526 INFO: Microblog startup [in /Users/antonio/Desktop/microblog/app/__init__.py:47]
2019-07-19 02:45:47,098 INFO: Microblog startup [in /Users/antonio/Desktop/microblog/app/__init__.py:49]
2019-07-19 02:52:09,633 INFO: Microblog startup [in /Users/antonio/Desktop/microblog/app/__init__.py:49]
2019-07-19 13:13:15,939 INFO: Microblog startup [in /Users/antonio/Desktop/microblog/app/__init__.py:49]
2019-07-19 13:13:44,246 INFO: Microblog startup [in /Users/antonio/Desktop/microblog/app/__init__.py:49]
2019-07-19 13:14:09,952 ERROR: Exception on /reset_password_request [GET] [in /usr/local/lib/python2.7/site-packages/flask/app.py:1891]
Traceback (most recent call last):
  File "/usr/local/lib/python2.7/site-packages/flask/app.py", line 2446, in wsgi_app
    response = self.full_dispatch_request()
  File "/usr/local/lib/python2.7/site-packages/flask/app.py", line 1951, in full_dispatch_request
    rv = self.handle_user_exception(e)
  File "/usr/local/lib/python2.7/site-packages/flask/app.py", line 1820, in handle_user_exception
    reraise(exc_type, exc_value, tb)
  File "/usr/local/lib/python2.7/site-packages/flask/app.py", line 1949, in full_dispatch_request
    rv = self.dispatch_request()
  File "/usr/local/lib/python2.7/site-packages/flask/app.py", line 1935, in dispatch_request
    return self.view_functions[rule.endpoint](**req.view_args)
  File "/Users/antonio/Desktop/microblog/app/routes.py", line 193, in reset_password_request
    form = ResetPasswordRequest()
NameError: global name 'ResetPasswordRequest' is not defined
2019-07-19 13:14:45,875 INFO: Microblog startup [in /Users/antonio/Desktop/microblog/app/__init__.py:49]
2019-07-19 13:14:55,104 ERROR: Exception on /reset_password_request [POST] [in /usr/local/lib/python2.7/site-packages/flask/app.py:1891]
Traceback (most recent call last):
  File "/usr/local/lib/python2.7/site-packages/flask/app.py", line 2446, in wsgi_app
    response = self.full_dispatch_request()
  File "/usr/local/lib/python2.7/site-packages/flask/app.py", line 1951, in full_dispatch_request
    rv = self.handle_user_exception(e)
  File "/usr/local/lib/python2.7/site-packages/flask/app.py", line 1820, in handle_user_exception
    reraise(exc_type, exc_value, tb)
  File "/usr/local/lib/python2.7/site-packages/flask/app.py", line 1949, in full_dispatch_request
    rv = self.dispatch_request()
  File "/usr/local/lib/python2.7/site-packages/flask/app.py", line 1935, in dispatch_request
    return self.view_functions[rule.endpoint](**req.view_args)
  File "/Users/antonio/Desktop/microblog/app/routes.py", line 195, in reset_password_request
    user = User.quey.filter_by(email=form.email.data).first()
AttributeError: type object 'User' has no attribute 'quey'
2019-07-19 13:15:40,895 INFO: Microblog startup [in /Users/antonio/Desktop/microblog/app/__init__.py:49]
