2019-07-19 13:29:09,726 ERROR: Exception on /reset_password/eyJhbGciOiJIUzI1NiIsInR5cCI6IkpXVCJ9.eyJyZXNldF9wYXNzd29yZCI6OCwiZXhwIjoxNTYzNTY4MzgxLjY1ODQ5fQ.Cq993vUXbRRW0x_N9GxAvZdIRr72DDXXAr6TJXFjWyI [POST] [in /usr/local/lib/python2.7/site-packages/flask/app.py:1891]
Traceback (most recent call last):
  File "/usr/local/lib/python2.7/site-packages/flask/app.py", line 2446, in wsgi_app
    response = self.full_dispatch_request()
  File "/usr/local/lib/python2.7/site-packages/flask/app.py", line 1951, in full_dispatch_request
    rv = self.handle_user_exception(e)
  File "/usr/local/lib/python2.7/site-packages/flask/app.py", line 1820, in handle_user_exception
    reraise(exc_type, exc_value, tb)
  File "/usr/local/lib/python2.7/site-packages/flask/app.py", line 1949, in full_dispatch_request
    rv = self.dispatch_request()
  File "/usr/local/lib/python2.7/site-packages/flask/app.py", line 1935, in dispatch_request
    return self.view_functions[rule.endpoint](**req.view_args)
  File "/Users/antonio/Desktop/microblog/app/routes.py", line 211, in reset_password
    user.set_pasdsword(form.password.data)
AttributeError: 'User' object has no attribute 'set_pasdsword'
2019-07-19 13:29:48,666 INFO: Microblog startup [in /Users/antonio/Desktop/microblog/app/__init__.py:49]
2019-07-19 13:30:02,979 ERROR: Exception on /reset_password/eyJhbGciOiJIUzI1NiIsInR5cCI6IkpXVCJ9.eyJyZXNldF9wYXNzd29yZCI6OCwiZXhwIjoxNTYzNTY4MzgxLjY1ODQ5fQ.Cq993vUXbRRW0x_N9GxAvZdIRr72DDXXAr6TJXFjWyI [POST] [in /usr/local/lib/python2.7/site-packages/flask/app.py:1891]
Traceback (most recent call last):
  File "/usr/local/lib/python2.7/site-packages/flask/app.py", line 2446, in wsgi_app
    response = self.full_dispatch_request()
  File "/usr/local/lib/python2.7/site-packages/flask/app.py", line 1951, in full_dispatch_request
    rv = self.handle_user_exception(e)
  File "/usr/local/lib/python2.7/site-packages/flask/app.py", line 1820, in handle_user_exception
    reraise(exc_type, exc_value, tb)
  File "/usr/local/lib/python2.7/site-packages/flask/app.py", line 1949, in full_dispatch_request
    rv = self.dispatch_request()
  File "/usr/local/lib/python2.7/site-packages/flask/app.py", line 1935, in dispatch_request
    return self.view_functions[rule.endpoint](**req.view_args)
  File "/Users/antonio/Desktop/microblog/app/routes.py", line 211, in reset_password
    user.set_passsword(form.password.data)
AttributeError: 'User' object has no attribute 'set_passsword'
2019-07-19 13:30:29,656 INFO: Microblog startup [in /Users/antonio/Desktop/microblog/app/__init__.py:49]
2019-07-19 18:16:54,281 INFO: Microblog startup [in /Users/antonio/Desktop/microblog/app/__init__.py:49]
2019-07-19 18:18:03,978 ERROR: Exception on /reset_password_request [POST] [in /usr/local/lib/python2.7/site-packages/flask/app.py:1891]
Traceback (most recent call last):
  File "/usr/local/lib/python2.7/site-packages/flask/app.py", line 2446, in wsgi_app
    response = self.full_dispatch_request()
  File "/usr/local/lib/python2.7/site-packages/flask/app.py", line 1951, in full_dispatch_request
    rv = self.handle_user_exception(e)
  File "/usr/local/lib/python2.7/site-packages/flask/app.py", line 1820, in handle_user_exception
    reraise(exc_type, exc_value, tb)
  File "/usr/local/lib/python2.7/site-packages/flask/app.py", line 1949, in full_dispatch_request
    rv = self.dispatch_request()
  File "/usr/local/lib/python2.7/site-packages/flask/app.py", line 1935, in dispatch_request
    return self.view_functions[rule.endpoint](**req.view_args)
  File "/Users/antonio/Desktop/microblog/app/routes.py", line 197, in reset_password_request
    send_password_reset_email(user)
  File "/Users/antonio/Desktop/microblog/app/email.py", line 18, in send_password_reset_email
    send_email('[Microblog] Reset Your Password', sender=app.config['ADMINS'][0], recipients=[user.email], text_body=render_template('email/reset_password.txt',user=user, token=token),html_body=render_template('email/reset_password.html', user=user, token=token))
  File "/Users/antonio/Desktop/microblog/app/email.py", line 14, in send_email
    Thread(target=send_sync_email, args=(app,msg)).start()
NameError: global name 'send_sync_email' is not defined
2019-07-19 18:18:38,619 INFO: Microblog startup [in /Users/antonio/Desktop/microblog/app/__init__.py:49]
2019-07-20 11:14:41,397 INFO: Microblog startup [in /Users/antonio/Desktop/microblog/app/__init__.py:49]
2019-07-20 11:15:00,292 INFO: Microblog startup [in /Users/antonio/Desktop/microblog/app/__init__.py:49]
2019-07-20 13:52:01,202 INFO: Microblog startup [in /Users/antonio/Desktop/microblog/app/__init__.py:51]
2019-07-20 13:52:08,189 INFO: Microblog startup [in /Users/antonio/Desktop/microblog/app/__init__.py:51]
2019-07-20 13:52:27,141 INFO: Microblog startup [in /Users/antonio/Desktop/microblog/app/__init__.py:51]
2019-07-20 13:52:31,551 ERROR: Exception on /login [GET] [in /usr/local/lib/python2.7/site-packages/flask/app.py:1891]
Traceback (most recent call last):
  File "/usr/local/lib/python2.7/site-packages/flask/app.py", line 2446, in wsgi_app
    response = self.full_dispatch_request()
  File "/usr/local/lib/python2.7/site-packages/flask/app.py", line 1951, in full_dispatch_request
    rv = self.handle_user_exception(e)
  File "/usr/local/lib/python2.7/site-packages/flask/app.py", line 1820, in handle_user_exception
    reraise(exc_type, exc_value, tb)
  File "/usr/local/lib/python2.7/site-packages/flask/app.py", line 1949, in full_dispatch_request
    rv = self.dispatch_request()
  File "/usr/local/lib/python2.7/site-packages/flask/app.py", line 1935, in dispatch_request
    return self.view_functions[rule.endpoint](**req.view_args)
  File "/Users/antonio/Desktop/microblog/app/routes.py", line 74, in login
    return render_template('login.html', title='Sign In', form=form)
  File "/usr/local/lib/python2.7/site-packages/flask/templating.py", line 140, in render_template
    ctx.app,
  File "/usr/local/lib/python2.7/site-packages/flask/templating.py", line 120, in _render
    rv = template.render(context)
  File "/usr/local/lib/python2.7/site-packages/jinja2/environment.py", line 1008, in render
    return self.environment.handle_exception(exc_info, True)
  File "/usr/local/lib/python2.7/site-packages/jinja2/environment.py", line 780, in handle_exception
    reraise(exc_type, exc_value, tb)
  File "/Users/antonio/Desktop/microblog/app/templates/base.html", line 70, in template
    {% endblock %}
TemplateSyntaxError: Encountered unknown tag 'endblock'. You probably made a nesting mistake. Jinja is expecting this tag, but currently looking for 'endif'. The innermost block that needs to be closed is 'if'.
2019-07-20 13:59:18,270 INFO: Microblog startup [in /Users/antonio/Desktop/microblog/app/__init__.py:51]
2019-07-20 13:59:21,806 ERROR: Exception on /login [GET] [in /usr/local/lib/python2.7/site-packages/flask/app.py:1891]
Traceback (most recent call last):
  File "/usr/local/lib/python2.7/site-packages/flask/app.py", line 2446, in wsgi_app
    response = self.full_dispatch_request()
  File "/usr/local/lib/python2.7/site-packages/flask/app.py", line 1951, in full_dispatch_request
    rv = self.handle_user_exception(e)
  File "/usr/local/lib/python2.7/site-packages/flask/app.py", line 1820, in handle_user_exception
    reraise(exc_type, exc_value, tb)
  File "/usr/local/lib/python2.7/site-packages/flask/app.py", line 1949, in full_dispatch_request
    rv = self.dispatch_request()
  File "/usr/local/lib/python2.7/site-packages/flask/app.py", line 1935, in dispatch_request
    return self.view_functions[rule.endpoint](**req.view_args)
  File "/Users/antonio/Desktop/microblog/app/routes.py", line 74, in login
    return render_template('login.html', title='Sign In', form=form)
  File "/usr/local/lib/python2.7/site-packages/flask/templating.py", line 140, in render_template
    ctx.app,
  File "/usr/local/lib/python2.7/site-packages/flask/templating.py", line 120, in _render
    rv = template.render(context)
  File "/usr/local/lib/python2.7/site-packages/jinja2/environment.py", line 1008, in render
    return self.environment.handle_exception(exc_info, True)
  File "/usr/local/lib/python2.7/site-packages/jinja2/environment.py", line 780, in handle_exception
    reraise(exc_type, exc_value, tb)
  File "/Users/antonio/Desktop/microblog/app/templates/base.html", line 74, in template
    {% block content %}
TemplateAssertionError: block 'content' defined twice
2019-07-20 13:59:25,372 ERROR: Exception on /login [GET] [in /usr/local/lib/python2.7/site-packages/flask/app.py:1891]
Traceback (most recent call last):
  File "/usr/local/lib/python2.7/site-packages/flask/app.py", line 2446, in wsgi_app
    response = self.full_dispatch_request()
  File "/usr/local/lib/python2.7/site-packages/flask/app.py", line 1951, in full_dispatch_request
    rv = self.handle_user_exception(e)
  File "/usr/local/lib/python2.7/site-packages/flask/app.py", line 1820, in handle_user_exception
    reraise(exc_type, exc_value, tb)
  File "/usr/local/lib/python2.7/site-packages/flask/app.py", line 1949, in full_dispatch_request
    rv = self.dispatch_request()
  File "/usr/local/lib/python2.7/site-packages/flask/app.py", line 1935, in dispatch_request
    return self.view_functions[rule.endpoint](**req.view_args)
  File "/Users/antonio/Desktop/microblog/app/routes.py", line 74, in login
    return render_template('login.html', title='Sign In', form=form)
  File "/usr/local/lib/python2.7/site-packages/flask/templating.py", line 140, in render_template
    ctx.app,
  File "/usr/local/lib/python2.7/site-packages/flask/templating.py", line 120, in _render
    rv = template.render(context)
  File "/usr/local/lib/python2.7/site-packages/jinja2/environment.py", line 1008, in render
    return self.environment.handle_exception(exc_info, True)
  File "/usr/local/lib/python2.7/site-packages/jinja2/environment.py", line 780, in handle_exception
    reraise(exc_type, exc_value, tb)
  File "/Users/antonio/Desktop/microblog/app/templates/base.html", line 74, in template
    {% block content %}
TemplateAssertionError: block 'content' defined twice
