2019-07-14 11:52:56,841 INFO: Microblog startup [in /Users/antonio/Desktop/microblog/app/__init__.py:45]
2019-07-14 11:53:18,051 INFO: Microblog startup [in /Users/antonio/Desktop/microblog/app/__init__.py:45]
2019-07-14 11:53:38,062 ERROR: Exception on /edit_profile [POST] [in /usr/local/lib/python2.7/site-packages/flask/app.py:1891]
Traceback (most recent call last):
  File "/usr/local/lib/python2.7/site-packages/flask/app.py", line 2446, in wsgi_app
    response = self.full_dispatch_request()
  File "/usr/local/lib/python2.7/site-packages/flask/app.py", line 1951, in full_dispatch_request
    rv = self.handle_user_exception(e)
  File "/usr/local/lib/python2.7/site-packages/flask/app.py", line 1820, in handle_user_exception
    reraise(exc_type, exc_value, tb)
  File "/usr/local/lib/python2.7/site-packages/flask/app.py", line 1949, in full_dispatch_request
    rv = self.dispatch_request()
  File "/usr/local/lib/python2.7/site-packages/flask/app.py", line 1935, in dispatch_request
    return self.view_functions[rule.endpoint](**req.view_args)
  File "/usr/local/lib/python2.7/site-packages/flask_login/utils.py", line 261, in decorated_view
    return func(*args, **kwargs)
  File "/Users/antonio/Desktop/microblog/app/routes.py", line 100, in edit_profile
    db.session.commit()
  File "/usr/local/lib/python2.7/site-packages/sqlalchemy/orm/scoping.py", line 162, in do
    return getattr(self.registry(), name)(*args, **kwargs)
  File "/usr/local/lib/python2.7/site-packages/sqlalchemy/orm/session.py", line 1027, in commit
    self.transaction.commit()
  File "/usr/local/lib/python2.7/site-packages/sqlalchemy/orm/session.py", line 494, in commit
    self._prepare_impl()
  File "/usr/local/lib/python2.7/site-packages/sqlalchemy/orm/session.py", line 473, in _prepare_impl
    self.session.flush()
  File "/usr/local/lib/python2.7/site-packages/sqlalchemy/orm/session.py", line 2459, in flush
    self._flush(objects)
  File "/usr/local/lib/python2.7/site-packages/sqlalchemy/orm/session.py", line 2597, in _flush
    transaction.rollback(_capture_exception=True)
  File "/usr/local/lib/python2.7/site-packages/sqlalchemy/util/langhelpers.py", line 68, in __exit__
    compat.reraise(exc_type, exc_value, exc_tb)
  File "/usr/local/lib/python2.7/site-packages/sqlalchemy/orm/session.py", line 2557, in _flush
    flush_context.execute()
  File "/usr/local/lib/python2.7/site-packages/sqlalchemy/orm/unitofwork.py", line 422, in execute
    rec.execute(self)
  File "/usr/local/lib/python2.7/site-packages/sqlalchemy/orm/unitofwork.py", line 589, in execute
    uow,
  File "/usr/local/lib/python2.7/site-packages/sqlalchemy/orm/persistence.py", line 236, in save_obj
    update,
  File "/usr/local/lib/python2.7/site-packages/sqlalchemy/orm/persistence.py", line 996, in _emit_update_statements
    statement, multiparams
  File "/usr/local/lib/python2.7/site-packages/sqlalchemy/engine/base.py", line 988, in execute
    return meth(self, multiparams, params)
  File "/usr/local/lib/python2.7/site-packages/sqlalchemy/sql/elements.py", line 287, in _execute_on_connection
    return connection._execute_clauseelement(self, multiparams, params)
  File "/usr/local/lib/python2.7/site-packages/sqlalchemy/engine/base.py", line 1107, in _execute_clauseelement
    distilled_params,
  File "/usr/local/lib/python2.7/site-packages/sqlalchemy/engine/base.py", line 1248, in _execute_context
    e, statement, parameters, cursor, context
  File "/usr/local/lib/python2.7/site-packages/sqlalchemy/engine/base.py", line 1466, in _handle_dbapi_exception
    util.raise_from_cause(sqlalchemy_exception, exc_info)
  File "/usr/local/lib/python2.7/site-packages/sqlalchemy/util/compat.py", line 399, in raise_from_cause
    reraise(type(exception), exception, tb=exc_tb, cause=cause)
  File "/usr/local/lib/python2.7/site-packages/sqlalchemy/engine/base.py", line 1244, in _execute_context
    cursor, statement, parameters, context
  File "/usr/local/lib/python2.7/site-packages/sqlalchemy/engine/default.py", line 550, in do_execute
    cursor.execute(statement, parameters)
IntegrityError: (sqlite3.IntegrityError) UNIQUE constraint failed: user.username
[SQL: UPDATE user SET username=?, about_me=? WHERE user.id = ?]
[parameters: (u'antonio', u'erci', 4)]
(Background on this error at: http://sqlalche.me/e/gkpj)
2019-07-14 12:28:04,955 INFO: Microblog startup [in /Users/antonio/Desktop/microblog/app/__init__.py:46]
2019-07-14 12:28:17,059 ERROR: Exception on /edit_profile [POST] [in /usr/local/lib/python2.7/site-packages/flask/app.py:1891]
Traceback (most recent call last):
  File "/usr/local/lib/python2.7/site-packages/flask/app.py", line 2446, in wsgi_app
    response = self.full_dispatch_request()
  File "/usr/local/lib/python2.7/site-packages/flask/app.py", line 1951, in full_dispatch_request
    rv = self.handle_user_exception(e)
  File "/usr/local/lib/python2.7/site-packages/flask/app.py", line 1820, in handle_user_exception
    reraise(exc_type, exc_value, tb)
  File "/usr/local/lib/python2.7/site-packages/flask/app.py", line 1949, in full_dispatch_request
    rv = self.dispatch_request()
  File "/usr/local/lib/python2.7/site-packages/flask/app.py", line 1935, in dispatch_request
    return self.view_functions[rule.endpoint](**req.view_args)
  File "/usr/local/lib/python2.7/site-packages/flask_login/utils.py", line 261, in decorated_view
    return func(*args, **kwargs)
  File "/Users/antonio/Desktop/microblog/app/routes.py", line 97, in edit_profile
    if form.validate_on_submit():
  File "/usr/local/lib/python2.7/site-packages/flask_wtf/form.py", line 101, in validate_on_submit
    return self.is_submitted() and self.validate()
  File "/usr/local/lib/python2.7/site-packages/wtforms/form.py", line 310, in validate
    return super(Form, self).validate(extra)
  File "/usr/local/lib/python2.7/site-packages/wtforms/form.py", line 152, in validate
    if not field.validate(self, extra):
  File "/usr/local/lib/python2.7/site-packages/wtforms/fields/core.py", line 206, in validate
    stop_validation = self._run_validation_chain(form, chain)
  File "/usr/local/lib/python2.7/site-packages/wtforms/fields/core.py", line 226, in _run_validation_chain
    validator(form, self)
  File "/Users/antonio/Desktop/microblog/app/forms.py", line 41, in validate_username
    if username_data != self.original_username:
NameError: global name 'username_data' is not defined
2019-07-14 12:28:19,305 ERROR: Exception on /edit_profile [POST] [in /usr/local/lib/python2.7/site-packages/flask/app.py:1891]
Traceback (most recent call last):
  File "/usr/local/lib/python2.7/site-packages/flask/app.py", line 2446, in wsgi_app
    response = self.full_dispatch_request()
  File "/usr/local/lib/python2.7/site-packages/flask/app.py", line 1951, in full_dispatch_request
    rv = self.handle_user_exception(e)
  File "/usr/local/lib/python2.7/site-packages/flask/app.py", line 1820, in handle_user_exception
    reraise(exc_type, exc_value, tb)
  File "/usr/local/lib/python2.7/site-packages/flask/app.py", line 1949, in full_dispatch_request
    rv = self.dispatch_request()
  File "/usr/local/lib/python2.7/site-packages/flask/app.py", line 1935, in dispatch_request
    return self.view_functions[rule.endpoint](**req.view_args)
  File "/usr/local/lib/python2.7/site-packages/flask_login/utils.py", line 261, in decorated_view
    return func(*args, **kwargs)
  File "/Users/antonio/Desktop/microblog/app/routes.py", line 97, in edit_profile
    if form.validate_on_submit():
  File "/usr/local/lib/python2.7/site-packages/flask_wtf/form.py", line 101, in validate_on_submit
    return self.is_submitted() and self.validate()
  File "/usr/local/lib/python2.7/site-packages/wtforms/form.py", line 310, in validate
    return super(Form, self).validate(extra)
  File "/usr/local/lib/python2.7/site-packages/wtforms/form.py", line 152, in validate
    if not field.validate(self, extra):
  File "/usr/local/lib/python2.7/site-packages/wtforms/fields/core.py", line 206, in validate
    stop_validation = self._run_validation_chain(form, chain)
  File "/usr/local/lib/python2.7/site-packages/wtforms/fields/core.py", line 226, in _run_validation_chain
    validator(form, self)
  File "/Users/antonio/Desktop/microblog/app/forms.py", line 41, in validate_username
    if username_data != self.original_username:
NameError: global name 'username_data' is not defined
2019-07-14 12:32:41,787 INFO: Microblog startup [in /Users/antonio/Desktop/microblog/app/__init__.py:46]
2019-07-15 19:39:19,594 INFO: Microblog startup [in /Users/antonio/Desktop/microblog/app/__init__.py:47]
2019-07-15 19:39:23,407 INFO: Microblog startup [in /Users/antonio/Desktop/microblog/app/__init__.py:47]
2019-07-15 19:41:44,110 INFO: Microblog startup [in /Users/antonio/Desktop/microblog/app/__init__.py:47]
2019-07-15 19:42:15,831 INFO: Microblog startup [in /Users/antonio/Desktop/microblog/app/__init__.py:47]
2019-07-15 19:43:59,284 INFO: Microblog startup [in /Users/antonio/Desktop/microblog/app/__init__.py:47]
2019-07-15 19:47:30,833 INFO: Microblog startup [in /Users/antonio/Desktop/microblog/app/__init__.py:47]
2019-07-16 22:01:20,870 INFO: Microblog startup [in /Users/antonio/Desktop/microblog/app/__init__.py:47]
2019-07-16 22:01:53,656 INFO: Microblog startup [in /Users/antonio/Desktop/microblog/app/__init__.py:47]
2019-07-16 22:04:33,177 INFO: Microblog startup [in /Users/antonio/Desktop/microblog/app/__init__.py:47]
2019-07-16 22:04:41,551 INFO: Microblog startup [in /Users/antonio/Desktop/microblog/app/__init__.py:47]
2019-07-16 22:05:59,817 INFO: Microblog startup [in /Users/antonio/Desktop/microblog/app/__init__.py:47]
2019-07-16 22:06:09,578 INFO: Microblog startup [in /Users/antonio/Desktop/microblog/app/__init__.py:47]
2019-07-16 22:06:14,894 INFO: Microblog startup [in /Users/antonio/Desktop/microblog/app/__init__.py:47]
2019-07-17 12:30:46,009 INFO: Microblog startup [in /Users/antonio/Desktop/microblog/app/__init__.py:47]
2019-07-17 12:52:53,619 INFO: Microblog startup [in /Users/antonio/Desktop/microblog/app/__init__.py:47]
2019-07-17 13:07:49,272 INFO: Microblog startup [in /Users/antonio/Desktop/microblog/app/__init__.py:47]
